module github.com/bujimuji/markov-passwords

go 1.15

require (
	github.com/cheggaaa/pb/v3 v3.0.5
	github.com/fatih/color v1.9.0 // indirect
	github.com/mroth/weightedrand v0.4.1
	github.com/sirupsen/logrus v1.7.0
	github.com/valyala/fastrand v1.0.0
	golang.org/x/sys v0.0.0-20210119212857-b64e53b001e4 // indirect
)
